^C:\USERS\HORIA\SOURCE\REPOS\TESTPLUGIN\TESTPLUGIN\CONFIGMGR.CPP|C:\USERS\HORIA\SOURCE\REPOS\TESTPLUGIN\TESTPLUGIN\DATABASEMGR.CPP|C:\USERS\HORIA\SOURCE\REPOS\TESTPLUGIN\TESTPLUGIN\TESTPLUGIN.CPP|C:\USERS\HORIA\SOURCE\REPOS\TESTPLUGIN\TESTPLUGIN\UTILITIES.CPP|D:\USERS\HORIA\DOWNLOADS\FILES\FILES\SQL\BACKUP.CPP|D:\USERS\HORIA\DOWNLOADS\FILES\FILES\SQL\COLUMN.CPP|D:\USERS\HORIA\DOWNLOADS\FILES\FILES\SQL\DATABASE.CPP|D:\USERS\HORIA\DOWNLOADS\FILES\FILES\SQL\EXCEPTION.CPP|D:\USERS\HORIA\DOWNLOADS\FILES\FILES\SQL\STATEMENT.CPP|D:\USERS\HORIA\DOWNLOADS\FILES\FILES\SQL\TRANSACTION.CPP
C:\USERS\HORIA\SOURCE\REPOS\TESTPLUGIN\TESTPLUGIN\X64\RELEASE\VC141.PDB
C:\USERS\HORIA\SOURCE\REPOS\TESTPLUGIN\TESTPLUGIN\X64\RELEASE\UTILITIES.OBJ
C:\USERS\HORIA\SOURCE\REPOS\TESTPLUGIN\TESTPLUGIN\X64\RELEASE\DATABASEMGR.OBJ
C:\USERS\HORIA\SOURCE\REPOS\TESTPLUGIN\TESTPLUGIN\X64\RELEASE\TRANSACTION.OBJ
C:\USERS\HORIA\SOURCE\REPOS\TESTPLUGIN\TESTPLUGIN\X64\RELEASE\STATEMENT.OBJ
C:\USERS\HORIA\SOURCE\REPOS\TESTPLUGIN\TESTPLUGIN\X64\RELEASE\EXCEPTION.OBJ
C:\USERS\HORIA\SOURCE\REPOS\TESTPLUGIN\TESTPLUGIN\X64\RELEASE\DATABASE.OBJ
C:\USERS\HORIA\SOURCE\REPOS\TESTPLUGIN\TESTPLUGIN\X64\RELEASE\COLUMN.OBJ
C:\USERS\HORIA\SOURCE\REPOS\TESTPLUGIN\TESTPLUGIN\X64\RELEASE\BACKUP.OBJ
C:\USERS\HORIA\SOURCE\REPOS\TESTPLUGIN\TESTPLUGIN\X64\RELEASE\CONFIGMGR.OBJ
^C:\USERS\HORIA\SOURCE\REPOS\TESTPLUGIN\TESTPLUGIN\CONFIGMGR.CPP
C:\USERS\HORIA\SOURCE\REPOS\TESTPLUGIN\TESTPLUGIN\X64\RELEASE\CONFIGMGR.OBJ
^D:\USERS\HORIA\DOWNLOADS\FILES\FILES\SQL\BACKUP.CPP
C:\USERS\HORIA\SOURCE\REPOS\TESTPLUGIN\TESTPLUGIN\X64\RELEASE\BACKUP.OBJ
^D:\USERS\HORIA\DOWNLOADS\FILES\FILES\SQL\COLUMN.CPP
C:\USERS\HORIA\SOURCE\REPOS\TESTPLUGIN\TESTPLUGIN\X64\RELEASE\COLUMN.OBJ
^D:\USERS\HORIA\DOWNLOADS\FILES\FILES\SQL\DATABASE.CPP
C:\USERS\HORIA\SOURCE\REPOS\TESTPLUGIN\TESTPLUGIN\X64\RELEASE\DATABASE.OBJ
^D:\USERS\HORIA\DOWNLOADS\FILES\FILES\SQL\EXCEPTION.CPP
C:\USERS\HORIA\SOURCE\REPOS\TESTPLUGIN\TESTPLUGIN\X64\RELEASE\EXCEPTION.OBJ
^D:\USERS\HORIA\DOWNLOADS\FILES\FILES\SQL\STATEMENT.CPP
C:\USERS\HORIA\SOURCE\REPOS\TESTPLUGIN\TESTPLUGIN\X64\RELEASE\STATEMENT.OBJ
^D:\USERS\HORIA\DOWNLOADS\FILES\FILES\SQL\TRANSACTION.CPP
C:\USERS\HORIA\SOURCE\REPOS\TESTPLUGIN\TESTPLUGIN\X64\RELEASE\TRANSACTION.OBJ
^D:\USERS\HORIA\DOWNLOADS\FILES\FILES\SQL\SQLITE3.C
C:\USERS\HORIA\SOURCE\REPOS\TESTPLUGIN\TESTPLUGIN\X64\RELEASE\VC141.PDB
C:\USERS\HORIA\SOURCE\REPOS\TESTPLUGIN\TESTPLUGIN\X64\RELEASE\SQLITE3.OBJ
^C:\USERS\HORIA\SOURCE\REPOS\TESTPLUGIN\TESTPLUGIN\TESTPLUGIN.CPP|C:\USERS\HORIA\SOURCE\REPOS\TESTPLUGIN\TESTPLUGIN\UTILITIES.CPP
C:\USERS\HORIA\SOURCE\REPOS\TESTPLUGIN\TESTPLUGIN\X64\RELEASE\VC141.PDB
C:\USERS\HORIA\SOURCE\REPOS\TESTPLUGIN\TESTPLUGIN\X64\RELEASE\TESTPLUGIN.OBJ
^C:\USERS\HORIA\SOURCE\REPOS\TESTPLUGIN\TESTPLUGIN\DATABASEMGR.CPP|C:\USERS\HORIA\SOURCE\REPOS\TESTPLUGIN\TESTPLUGIN\TESTPLUGIN.CPP|C:\USERS\HORIA\SOURCE\REPOS\TESTPLUGIN\TESTPLUGIN\UTILITIES.CPP
C:\USERS\HORIA\SOURCE\REPOS\TESTPLUGIN\TESTPLUGIN\X64\RELEASE\VC141.PDB
C:\USERS\HORIA\SOURCE\REPOS\TESTPLUGIN\TESTPLUGIN\X64\RELEASE\UTILITIES.OBJ
C:\USERS\HORIA\SOURCE\REPOS\TESTPLUGIN\TESTPLUGIN\X64\RELEASE\TESTPLUGIN.OBJ
C:\USERS\HORIA\SOURCE\REPOS\TESTPLUGIN\TESTPLUGIN\X64\RELEASE\DATABASEMGR.OBJ
^C:\USERS\HORIA\SOURCE\REPOS\TESTPLUGIN\TESTPLUGIN\UTILITIES.CPP
C:\USERS\HORIA\SOURCE\REPOS\TESTPLUGIN\TESTPLUGIN\X64\RELEASE\VC141.PDB
^C:\USERS\HORIA\SOURCE\REPOS\TESTPLUGIN\TESTPLUGIN\DATABASEMGR.CPP|C:\USERS\HORIA\SOURCE\REPOS\TESTPLUGIN\TESTPLUGIN\TESTPLUGIN.CPP
C:\USERS\HORIA\SOURCE\REPOS\TESTPLUGIN\TESTPLUGIN\X64\RELEASE\VC141.PDB
C:\USERS\HORIA\SOURCE\REPOS\TESTPLUGIN\TESTPLUGIN\X64\RELEASE\TESTPLUGIN.OBJ
C:\USERS\HORIA\SOURCE\REPOS\TESTPLUGIN\TESTPLUGIN\X64\RELEASE\DATABASEMGR.OBJ
^C:\USERS\HORIA\SOURCE\REPOS\TESTPLUGIN\TESTPLUGIN\DATABASEMGR.CPP
C:\USERS\HORIA\SOURCE\REPOS\TESTPLUGIN\TESTPLUGIN\X64\RELEASE\VC141.PDB
^C:\USERS\HORIA\SOURCE\REPOS\TESTPLUGIN\TESTPLUGIN\TESTPLUGIN.CPP
C:\USERS\HORIA\SOURCE\REPOS\TESTPLUGIN\TESTPLUGIN\X64\RELEASE\VC141.PDB
C:\USERS\HORIA\SOURCE\REPOS\TESTPLUGIN\TESTPLUGIN\X64\RELEASE\TESTPLUGIN.OBJ
